{
    "interactionModel": {
        "languageModel": {
            "invocationName": "yes i can't do my regular activities",
            "intents": [
                {
                    "name": "AMAZON.FallbackIntent",
                    "samples": []
                },
                {
                    "name": "AMAZON.CancelIntent",
                    "samples": []
                },
                {
                    "name": "AMAZON.HelpIntent",
                    "samples": []
                },
                {
                    "name": "AMAZON.StopIntent",
                    "samples": []
                },
                {
                    "name": "regularactivity",
                    "slots": [
                        {
                            "name": "activityregular",
                            "type": "AMAZON.WrittenCreativeWorkType"
                        }
                    ],
                    "samples": [
                        "yes. i can't do my regular activities"
                    ]
                }
            ],
            "types": []
        }
    }
}
